{
	"data": [
		{
			"codigo_postal": "1139CFE",
			"loc_loc_id": "3690",
			"localidad": "CAPITAL FEDERAL",
			"pcia_codigo": "C",
			"zn_zona": "ZN_3",
			"or_zona": "OR_01",
			"organizador": "USERTEST2",
			"f_modif_loc": null,
			"f_modif_zn": null,
			"f_modif_or": null
		},
		{
			"codigo_postal": "1141CFE",
			"loc_loc_id": "3691",
			"localidad": "CAPITAL FEDERAL",
			"pcia_codigo": "C",
			"zn_zona": "ZN_3",
			"or_zona": "OR_01",
			"organizador": "ORMOHARRA",
			"f_modif_loc": null,
			"f_modif_zn": null,
			"f_modif_or": null
		},
		{
			"codigo_postal": "1142CFE",
			"loc_loc_id": "3692",
			"localidad": "CAPITAL FEDERAL",
			"pcia_codigo": "C",
			"zn_zona": "ZN_3",
			"or_zona": "OR_01",
			"organizador": "ORMOHARRA",
			"f_modif_loc": null,
			"f_modif_zn": null,
			"f_modif_or": null
		},
		{
			"codigo_postal": "1143CFE",
			"loc_loc_id": "3693",
			"localidad": "CAPITAL FEDERAL",
			"pcia_codigo": "C",
			"zn_zona": "ZN_3",
			"or_zona": "OR_01",
			"organizador": "ORMOHARRA",
			"f_modif_loc": null,
			"f_modif_zn": null,
			"f_modif_or": null
		},
		{
			"codigo_postal": "1144CFE",
			"loc_loc_id": "3694",
			"localidad": "CAPITAL FEDERAL",
			"pcia_codigo": "C",
			"zn_zona": "ZN_3",
			"or_zona": "OR_01",
			"organizador": "ORMOHARRA",
			"f_modif_loc": null,
			"f_modif_zn": null,
			"f_modif_or": null
		},
		{
			"codigo_postal": "1145CFE",
			"loc_loc_id": "3695",
			"localidad": "CAPITAL FEDERAL",
			"pcia_codigo": "C",
			"zn_zona": "ZN_3",
			"or_zona": "OR_01",
			"organizador": "ORMOHARRA",
			"f_modif_loc": null,
			"f_modif_zn": null,
			"f_modif_or": null
		},
		{
			"codigo_postal": "1146CFE",
			"loc_loc_id": "3696",
			"localidad": "CAPITAL FEDERAL",
			"pcia_codigo": "C",
			"zn_zona": "ZN_3",
			"or_zona": "OR_01",
			"organizador": "ORMOHARRA",
			"f_modif_loc": null,
			"f_modif_zn": null,
			"f_modif_or": null
		},
		{
			"codigo_postal": "1147CFE",
			"loc_loc_id": "3697",
			"localidad": "CAPITAL FEDERAL",
			"pcia_codigo": "C",
			"zn_zona": "ZN_3",
			"or_zona": "OR_01",
			"organizador": "ORMOHARRA",
			"f_modif_loc": null,
			"f_modif_zn": null,
			"f_modif_or": null
		},
		{
			"codigo_postal": "1148CFE",
			"loc_loc_id": "3698",
			"localidad": "CAPITAL FEDERAL",
			"pcia_codigo": "C",
			"zn_zona": "ZN_3",
			"or_zona": "OR_01",
			"organizador": "ORMOHARRA",
			"f_modif_loc": null,
			"f_modif_zn": null,
			"f_modif_or": null
		},
		{
			"codigo_postal": "1149CFE",
			"loc_loc_id": "3699",
			"localidad": "CAPITAL FEDERAL",
			"pcia_codigo": "C",
			"zn_zona": "ZN_3",
			"or_zona": "OR_01",
			"organizador": "ORMOHARRA",
			"f_modif_loc": null,
			"f_modif_zn": null,
			"f_modif_or": null
		},
		{
			"codigo_postal": "1150CFE",
			"loc_loc_id": "3700",
			"localidad": "CAPITAL FEDERAL",
			"pcia_codigo": "C",
			"zn_zona": "ZN_3",
			"or_zona": "OR_01",
			"organizador": "ORMOHARRA",
			"f_modif_loc": null,
			"f_modif_zn": null,
			"f_modif_or": null
		},
		{
			"codigo_postal": "1151CFE",
			"loc_loc_id": "3701",
			"localidad": "CAPITAL FEDERAL",
			"pcia_codigo": "C",
			"zn_zona": "ZN_3",
			"or_zona": "OR_01",
			"organizador": "ORMOHARRA",
			"f_modif_loc": null,
			"f_modif_zn": null,
			"f_modif_or": null
		},
		{
			"codigo_postal": "1152CFE",
			"loc_loc_id": "3702",
			"localidad": "CAPITAL FEDERAL",
			"pcia_codigo": "C",
			"zn_zona": "ZN_3",
			"or_zona": "OR_01",
			"organizador": "ORMOHARRA",
			"f_modif_loc": null,
			"f_modif_zn": null,
			"f_modif_or": null
		},
		{
			"codigo_postal": "1153CFE",
			"loc_loc_id": "3703",
			"localidad": "CAPITAL FEDERAL",
			"pcia_codigo": "C",
			"zn_zona": "ZN_3",
			"or_zona": "OR_01",
			"organizador": "ORMOHARRA",
			"f_modif_loc": null,
			"f_modif_zn": null,
			"f_modif_or": null
		},
		{
			"codigo_postal": "1154CFE",
			"loc_loc_id": "3704",
			"localidad": "CAPITAL FEDERAL",
			"pcia_codigo": "C",
			"zn_zona": "ZN_3",
			"or_zona": "OR_01",
			"organizador": "ORMOHARRA",
			"f_modif_loc": null,
			"f_modif_zn": null,
			"f_modif_or": null
		},
		{
			"codigo_postal": "1155CFE",
			"loc_loc_id": "3705",
			"localidad": "CAPITAL FEDERAL",
			"pcia_codigo": "C",
			"zn_zona": "ZN_3",
			"or_zona": "OR_01",
			"organizador": "ORMOHARRA",
			"f_modif_loc": null,
			"f_modif_zn": null,
			"f_modif_or": null
		},
		{
			"codigo_postal": "1156CFE",
			"loc_loc_id": "3706",
			"localidad": "CAPITAL FEDERAL",
			"pcia_codigo": "C",
			"zn_zona": "ZN_3",
			"or_zona": "OR_01",
			"organizador": "ORMOHARRA",
			"f_modif_loc": null,
			"f_modif_zn": null,
			"f_modif_or": null
		},
		{
			"codigo_postal": "1157CFE",
			"loc_loc_id": "3707",
			"localidad": "CAPITAL FEDERAL",
			"pcia_codigo": "C",
			"zn_zona": "ZN_3",
			"or_zona": "OR_01",
			"organizador": "ORMOHARRA",
			"f_modif_loc": null,
			"f_modif_zn": null,
			"f_modif_or": null
		},
		{
			"codigo_postal": "1158CFE",
			"loc_loc_id": "3708",
			"localidad": "CAPITAL FEDERAL",
			"pcia_codigo": "C",
			"zn_zona": "ZN_3",
			"or_zona": "OR_01",
			"organizador": "ORMOHARRA",
			"f_modif_loc": null,
			"f_modif_zn": null,
			"f_modif_or": null
		},
		{
			"codigo_postal": "1159CFE",
			"loc_loc_id": "3709",
			"localidad": "CAPITAL FEDERAL",
			"pcia_codigo": "C",
			"zn_zona": "ZN_3",
			"or_zona": "OR_01",
			"organizador": "ORMOHARRA",
			"f_modif_loc": null,
			"f_modif_zn": null,
			"f_modif_or": null
		},
		{
			"codigo_postal": "1160CFE",
			"loc_loc_id": "3710",
			"localidad": "CAPITAL FEDERAL",
			"pcia_codigo": "C",
			"zn_zona": "ZN_3",
			"or_zona": "OR_01",
			"organizador": "ORMOHARRA",
			"f_modif_loc": null,
			"f_modif_zn": null,
			"f_modif_or": null
		},
		{
			"codigo_postal": "1161CFE",
			"loc_loc_id": "3711",
			"localidad": "CAPITAL FEDERAL",
			"pcia_codigo": "C",
			"zn_zona": "ZN_3",
			"or_zona": "OR_01",
			"organizador": "ORMOHARRA",
			"f_modif_loc": null,
			"f_modif_zn": null,
			"f_modif_or": null
		},
		{
			"codigo_postal": "1162CFE",
			"loc_loc_id": "3712",
			"localidad": "CAPITAL FEDERAL",
			"pcia_codigo": "C",
			"zn_zona": "ZN_3",
			"or_zona": "OR_01",
			"organizador": "ORMOHARRA",
			"f_modif_loc": null,
			"f_modif_zn": null,
			"f_modif_or": null
		},
		{
			"codigo_postal": "1163CFE",
			"loc_loc_id": "3713",
			"localidad": "CAPITAL FEDERAL",
			"pcia_codigo": "C",
			"zn_zona": "ZN_3",
			"or_zona": "OR_01",
			"organizador": "ORMOHARRA",
			"f_modif_loc": null,
			"f_modif_zn": null,
			"f_modif_or": null
		},
		{
			"codigo_postal": "1164CFE",
			"loc_loc_id": "3714",
			"localidad": "CAPITAL FEDERAL",
			"pcia_codigo": "C",
			"zn_zona": "ZN_3",
			"or_zona": "OR_01",
			"organizador": "ORMOHARRA",
			"f_modif_loc": null,
			"f_modif_zn": null,
			"f_modif_or": null
		},
		{
			"codigo_postal": "1165CFE",
			"loc_loc_id": "3715",
			"localidad": "CAPITAL FEDERAL",
			"pcia_codigo": "C",
			"zn_zona": "ZN_3",
			"or_zona": "OR_01",
			"organizador": "ORMOHARRA",
			"f_modif_loc": null,
			"f_modif_zn": null,
			"f_modif_or": null
		},
		{
			"codigo_postal": "1166CFE",
			"loc_loc_id": "3716",
			"localidad": "CAPITAL FEDERAL",
			"pcia_codigo": "C",
			"zn_zona": "ZN_3",
			"or_zona": "OR_01",
			"organizador": "ORMOHARRA",
			"f_modif_loc": null,
			"f_modif_zn": null,
			"f_modif_or": null
		},
		{
			"codigo_postal": "1167CFE",
			"loc_loc_id": "3717",
			"localidad": "CAPITAL FEDERAL",
			"pcia_codigo": "C",
			"zn_zona": "ZN_3",
			"or_zona": "OR_01",
			"organizador": "ORMOHARRA",
			"f_modif_loc": null,
			"f_modif_zn": null,
			"f_modif_or": null
		},
		{
			"codigo_postal": "1168CFE",
			"loc_loc_id": "3718",
			"localidad": "CAPITAL FEDERAL",
			"pcia_codigo": "C",
			"zn_zona": "ZN_3",
			"or_zona": "OR_01",
			"organizador": "ORMOHARRA",
			"f_modif_loc": null,
			"f_modif_zn": null,
			"f_modif_or": null
		},
		{
			"codigo_postal": "1169CFE",
			"loc_loc_id": "3719",
			"localidad": "CAPITAL FEDERAL",
			"pcia_codigo": "C",
			"zn_zona": "ZN_3",
			"or_zona": "OR_01",
			"organizador": "ORMOHARRA",
			"f_modif_loc": null,
			"f_modif_zn": null,
			"f_modif_or": null
		},
		{
			"codigo_postal": "1171CFE",
			"loc_loc_id": "3720",
			"localidad": "CAPITAL FEDERAL",
			"pcia_codigo": "C",
			"zn_zona": "ZN_3",
			"or_zona": "OR_01",
			"organizador": "ORMOHARRA",
			"f_modif_loc": null,
			"f_modif_zn": null,
			"f_modif_or": null
		},
		{
			"codigo_postal": "1172CFE",
			"loc_loc_id": "3721",
			"localidad": "CAPITAL FEDERAL",
			"pcia_codigo": "C",
			"zn_zona": "ZN_3",
			"or_zona": "OR_01",
			"organizador": "ORMOHARRA",
			"f_modif_loc": null,
			"f_modif_zn": null,
			"f_modif_or": null
		},
		{
			"codigo_postal": "1173CFE",
			"loc_loc_id": "3722",
			"localidad": "CAPITAL FEDERAL",
			"pcia_codigo": "C",
			"zn_zona": "ZN_3",
			"or_zona": "OR_01",
			"organizador": "ORMOHARRA",
			"f_modif_loc": null,
			"f_modif_zn": null,
			"f_modif_or": null
		},
		{
			"codigo_postal": "1175CFE",
			"loc_loc_id": "3723",
			"localidad": "CAPITAL FEDERAL",
			"pcia_codigo": "C",
			"zn_zona": "ZN_3",
			"or_zona": "OR_01",
			"organizador": "ORMOHARRA",
			"f_modif_loc": null,
			"f_modif_zn": null,
			"f_modif_or": null
		},
		{
			"codigo_postal": "1176CFE",
			"loc_loc_id": "3724",
			"localidad": "CAPITAL FEDERAL",
			"pcia_codigo": "C",
			"zn_zona": "ZN_3",
			"or_zona": "OR_01",
			"organizador": "ORMOHARRA",
			"f_modif_loc": null,
			"f_modif_zn": null,
			"f_modif_or": null
		},
		{
			"codigo_postal": "1177CFE",
			"loc_loc_id": "3725",
			"localidad": "CAPITAL FEDERAL",
			"pcia_codigo": "C",
			"zn_zona": "ZN_3",
			"or_zona": "OR_01",
			"organizador": "ORMOHARRA",
			"f_modif_loc": null,
			"f_modif_zn": null,
			"f_modif_or": null
		},
		{
			"codigo_postal": "1178CFE",
			"loc_loc_id": "3726",
			"localidad": "CAPITAL FEDERAL",
			"pcia_codigo": "C",
			"zn_zona": "ZN_3",
			"or_zona": "OR_01",
			"organizador": "ORMOHARRA",
			"f_modif_loc": null,
			"f_modif_zn": null,
			"f_modif_or": null
		},
		{
			"codigo_postal": "1179CFE",
			"loc_loc_id": "3727",
			"localidad": "CAPITAL FEDERAL",
			"pcia_codigo": "C",
			"zn_zona": "ZN_3",
			"or_zona": "OR_01",
			"organizador": "ORMOHARRA",
			"f_modif_loc": null,
			"f_modif_zn": null,
			"f_modif_or": null
		},
		{
			"codigo_postal": "1180CFE",
			"loc_loc_id": "3728",
			"localidad": "CAPITAL FEDERAL",
			"pcia_codigo": "C",
			"zn_zona": "ZN_3",
			"or_zona": "OR_01",
			"organizador": "ORMOHARRA",
			"f_modif_loc": null,
			"f_modif_zn": null,
			"f_modif_or": null
		},
		{
			"codigo_postal": "1181CFE",
			"loc_loc_id": "3729",
			"localidad": "CAPITAL FEDERAL",
			"pcia_codigo": "C",
			"zn_zona": "ZN_3",
			"or_zona": "OR_01",
			"organizador": "ORMOHARRA",
			"f_modif_loc": null,
			"f_modif_zn": null,
			"f_modif_or": null
		},
		{
			"codigo_postal": "1182CFE",
			"loc_loc_id": "3730",
			"localidad": "CAPITAL FEDERAL",
			"pcia_codigo": "C",
			"zn_zona": "ZN_3",
			"or_zona": "OR_01",
			"organizador": "ORMOHARRA",
			"f_modif_loc": null,
			"f_modif_zn": null,
			"f_modif_or": null
		},
		{
			"codigo_postal": "1183CFE",
			"loc_loc_id": "3731",
			"localidad": "CAPITAL FEDERAL",
			"pcia_codigo": "C",
			"zn_zona": "ZN_3",
			"or_zona": "OR_01",
			"organizador": "ORMOHARRA",
			"f_modif_loc": null,
			"f_modif_zn": null,
			"f_modif_or": null
		},
		{
			"codigo_postal": "1184CFE",
			"loc_loc_id": "3732",
			"localidad": "CAPITAL FEDERAL",
			"pcia_codigo": "C",
			"zn_zona": "ZN_3",
			"or_zona": "OR_01",
			"organizador": "ORMOHARRA",
			"f_modif_loc": null,
			"f_modif_zn": null,
			"f_modif_or": null
		},
		{
			"codigo_postal": "1185CFE",
			"loc_loc_id": "3733",
			"localidad": "CAPITAL FEDERAL",
			"pcia_codigo": "C",
			"zn_zona": "ZN_3",
			"or_zona": "OR_01",
			"organizador": "ORMOHARRA",
			"f_modif_loc": null,
			"f_modif_zn": null,
			"f_modif_or": null
		},
		{
			"codigo_postal": "1186CFE",
			"loc_loc_id": "3734",
			"localidad": "CAPITAL FEDERAL",
			"pcia_codigo": "C",
			"zn_zona": "ZN_3",
			"or_zona": "OR_01",
			"organizador": "ORMOHARRA",
			"f_modif_loc": null,
			"f_modif_zn": null,
			"f_modif_or": null
		},
		{
			"codigo_postal": "1187CFE",
			"loc_loc_id": "3735",
			"localidad": "CAPITAL FEDERAL",
			"pcia_codigo": "C",
			"zn_zona": "ZN_3",
			"or_zona": "OR_01",
			"organizador": "ORMOHARRA",
			"f_modif_loc": null,
			"f_modif_zn": null,
			"f_modif_or": null
		},
		{
			"codigo_postal": "1188CFE",
			"loc_loc_id": "3736",
			"localidad": "CAPITAL FEDERAL",
			"pcia_codigo": "C",
			"zn_zona": "ZN_3",
			"or_zona": "OR_01",
			"organizador": "ORMOHARRA",
			"f_modif_loc": null,
			"f_modif_zn": null,
			"f_modif_or": null
		},
		{
			"codigo_postal": "1189CFE",
			"loc_loc_id": "3737",
			"localidad": "CAPITAL FEDERAL",
			"pcia_codigo": "C",
			"zn_zona": "ZN_3",
			"or_zona": "OR_01",
			"organizador": "ORMOHARRA",
			"f_modif_loc": null,
			"f_modif_zn": null,
			"f_modif_or": null
		},
		{
			"codigo_postal": "1190CFE",
			"loc_loc_id": "3738",
			"localidad": "CAPITAL FEDERAL",
			"pcia_codigo": "C",
			"zn_zona": "ZN_3",
			"or_zona": "OR_01",
			"organizador": "ORMOHARRA",
			"f_modif_loc": null,
			"f_modif_zn": null,
			"f_modif_or": null
		},
		{
			"codigo_postal": "1191CFE",
			"loc_loc_id": "3739",
			"localidad": "CAPITAL FEDERAL",
			"pcia_codigo": "C",
			"zn_zona": "ZN_3",
			"or_zona": "OR_01",
			"organizador": "ORMOHARRA",
			"f_modif_loc": null,
			"f_modif_zn": null,
			"f_modif_or": null
		}
	],
	"links": {
		"first": "https://api-test.acasalud.com.ar/aca_salud_test/public/v1/salud/localidades-zonas?page=1",
		"last": "https://api-test.acasalud.com.ar/aca_salud_test/public/v1/salud/localidades-zonas?page=470",
		"prev": "https://api-test.acasalud.com.ar/aca_salud_test/public/v1/salud/localidades-zonas?page=1",
		"next": "https://api-test.acasalud.com.ar/aca_salud_test/public/v1/salud/localidades-zonas?page=3"
	},
	"meta": {
		"current_page": 2,
		"from": 51,
		"last_page": 470,
		"path": "https://api-test.acasalud.com.ar/aca_salud_test/public/v1/salud/localidades-zonas",
		"per_page": 50,
		"to": 100,
		"total": 23475,
		"allowed_filters": [
			"localidad",
			"localidad_id",
			"codigo_postal",
			"fecha_modificacion"
		],
		"allowed_sorts": [
			"codigo_postal",
			"localidad"
		],
		"allowed_appends": [],
		"allowed_fields": [],
		"allowed_includes": [],
		"default_includes": [],
		"optional_get_vars": {
			"sortBy": [
				"codigo_postal",
				"localidad"
			],
			"sortOrder": [
				"asc",
				"desc"
			],
			"pageSize": {
				"0": "?pageSize=0",
				"15": "?pageSize=15",
				"50": "?pageSize=50",
				"100": "?pageSize=100"
			}
		}
	}
}